﻿Name,samAccountName,ParentOU
Vis01,Vis01,"OU=IDNSYSADMIN2017,DC=IDNCOMPETITION2017,DC=ID"
Vis02,Vis02,"OU=IDNSYSADMIN2017,DC=IDNCOMPETITION2017,DC=ID"
Vis03,Vis03,"OU=IDNSYSADMIN2017,DC=IDNCOMPETITION2017,DC=ID"
Vis04,Vis04,"OU=IDNSYSADMIN2017,DC=IDNCOMPETITION2017,DC=ID"
Vis05,Vis05,"OU=IDNSYSADMIN2017,DC=IDNCOMPETITION2017,DC=ID"
Vis06,Vis06,"OU=IDNSYSADMIN2017,DC=IDNCOMPETITION2017,DC=ID"
Vis07,Vis07,"OU=IDNSYSADMIN2017,DC=IDNCOMPETITION2017,DC=ID"
Vis08,Vis08,"OU=IDNSYSADMIN2017,DC=IDNCOMPETITION2017,DC=ID"
Vis09,Vis09,"OU=IDNSYSADMIN2017,DC=IDNCOMPETITION2017,DC=ID"
Vis10,Vis10,"OU=IDNSYSADMIN2017,DC=IDNCOMPETITION2017,DC=ID"
Vis11,Vis11,"OU=IDNSYSADMIN2017,DC=IDNCOMPETITION2017,DC=ID"
Vis12,Vis12,"OU=IDNSYSADMIN2017,DC=IDNCOMPETITION2017,DC=ID"
Vis13,Vis13,"OU=IDNSYSADMIN2017,DC=IDNCOMPETITION2017,DC=ID"
Vis14,Vis14,"OU=IDNSYSADMIN2017,DC=IDNCOMPETITION2017,DC=ID"
Vis15,Vis15,"OU=IDNSYSADMIN2017,DC=IDNCOMPETITION2017,DC=ID"
Vis16,Vis16,"OU=IDNSYSADMIN2017,DC=IDNCOMPETITION2017,DC=ID"
Vis17,Vis17,"OU=IDNSYSADMIN2017,DC=IDNCOMPETITION2017,DC=ID"
Vis18,Vis18,"OU=IDNSYSADMIN2017,DC=IDNCOMPETITION2017,DC=ID"
Vis19,Vis19,"OU=IDNSYSADMIN2017,DC=IDNCOMPETITION2017,DC=ID"
Vis20,Vis20,"OU=IDNSYSADMIN2017,DC=IDNCOMPETITION2017,DC=ID"
Vis21,Vis21,"OU=IDNSYSADMIN2017,DC=IDNCOMPETITION2017,DC=ID"
Vis22,Vis22,"OU=IDNSYSADMIN2017,DC=IDNCOMPETITION2017,DC=ID"
Vis23,Vis23,"OU=IDNSYSADMIN2017,DC=IDNCOMPETITION2017,DC=ID"
Vis24,Vis24,"OU=IDNSYSADMIN2017,DC=IDNCOMPETITION2017,DC=ID"
Vis25,Vis25,"OU=IDNSYSADMIN2017,DC=IDNCOMPETITION2017,DC=ID"
Vis26,Vis26,"OU=IDNSYSADMIN2017,DC=IDNCOMPETITION2017,DC=ID"
Vis27,Vis27,"OU=IDNSYSADMIN2017,DC=IDNCOMPETITION2017,DC=ID"
Vis28,Vis28,"OU=IDNSYSADMIN2017,DC=IDNCOMPETITION2017,DC=ID"
Vis29,Vis29,"OU=IDNSYSADMIN2017,DC=IDNCOMPETITION2017,DC=ID"
Vis30,Vis30,"OU=IDNSYSADMIN2017,DC=IDNCOMPETITION2017,DC=ID"
Vis31,Vis31,"OU=IDNSYSADMIN2017,DC=IDNCOMPETITION2017,DC=ID"
Vis32,Vis32,"OU=IDNSYSADMIN2017,DC=IDNCOMPETITION2017,DC=ID"
Vis33,Vis33,"OU=IDNSYSADMIN2017,DC=IDNCOMPETITION2017,DC=ID"
Vis34,Vis34,"OU=IDNSYSADMIN2017,DC=IDNCOMPETITION2017,DC=ID"
Vis35,Vis35,"OU=IDNSYSADMIN2017,DC=IDNCOMPETITION2017,DC=ID"
Vis36,Vis36,"OU=IDNSYSADMIN2017,DC=IDNCOMPETITION2017,DC=ID"
Vis37,Vis37,"OU=IDNSYSADMIN2017,DC=IDNCOMPETITION2017,DC=ID"
Vis38,Vis38,"OU=IDNSYSADMIN2017,DC=IDNCOMPETITION2017,DC=ID"
Vis39,Vis39,"OU=IDNSYSADMIN2017,DC=IDNCOMPETITION2017,DC=ID"
Vis40,Vis40,"OU=IDNSYSADMIN2017,DC=IDNCOMPETITION2017,DC=ID"
Vis41,Vis41,"OU=IDNSYSADMIN2017,DC=IDNCOMPETITION2017,DC=ID"
Vis42,Vis42,"OU=IDNSYSADMIN2017,DC=IDNCOMPETITION2017,DC=ID"
Vis43,Vis43,"OU=IDNSYSADMIN2017,DC=IDNCOMPETITION2017,DC=ID"
Vis44,Vis44,"OU=IDNSYSADMIN2017,DC=IDNCOMPETITION2017,DC=ID"
Vis45,Vis45,"OU=IDNSYSADMIN2017,DC=IDNCOMPETITION2017,DC=ID"
Vis46,Vis46,"OU=IDNSYSADMIN2017,DC=IDNCOMPETITION2017,DC=ID"
Vis47,Vis47,"OU=IDNSYSADMIN2017,DC=IDNCOMPETITION2017,DC=ID"
Vis48,Vis48,"OU=IDNSYSADMIN2017,DC=IDNCOMPETITION2017,DC=ID"
Vis49,Vis49,"OU=IDNSYSADMIN2017,DC=IDNCOMPETITION2017,DC=ID"
Vis50,Vis50,"OU=IDNSYSADMIN2017,DC=IDNCOMPETITION2017,DC=ID"
